module github.com/seal-io/simple-golang-app

require github.com/prometheus/client_golang v1.11.0

require (
	github.com/beorn7/perks v1.0.1 // indirect
	github.com/cespare/xxhash/v2 v2.1.1 // indirect
	github.com/golang/protobuf v1.5.2 // indirect
	github.com/matttproud/golang_protobuf_extensions v1.0.2-0.20181231171920-c182affec369 // indirect
	github.com/prometheus/client_model v0.2.0 // indirect
	github.com/prometheus/common v0.26.0 // indirect
	github.com/prometheus/procfs v0.6.0 // indirect
	golang.org/x/sys v0.0.0-20211109184856-51b60fd695b3 // indirect
	golang.org/x/xerrors v0.0.0-20200804184101-5ec99f83aff1 // indirect
	google.golang.org/protobuf v1.27.1 // indirect
)

go 1.18
